KEY;FIELD1;FIELD2;ER1;ER2;ER3;ER4
FIRSTNAME;automation129;automation129;;;;
LASTNAME;test129;test129;;;;
EMAIL;auto957@test.com;auto957@test.com;;;;
PASSWORD;Automation5!;Automation5!;;;;
SIGNINEMAIL;auto333@test.com;auto333@test.com;;;;
SIGNINPASSWORD;Automation5!;Automation5!;;;;
